[gd_scene load_steps=6 format=2]

[ext_resource path="res://boid.tscn" type="PackedScene" id=2]
[ext_resource path="res://bounce_mystery.gd" type="Script" id=3]
[ext_resource path="res://walls.tscn" type="PackedScene" id=4]

[sub_resource type="ProceduralSky" id=1]

[sub_resource type="Environment" id=2]
background_mode = 1
background_sky = SubResource( 1 )
background_color = Color( 0.215686, 0.396078, 0.458824, 1 )

[node name="arena" type="Spatial"]

[node name="topcam" type="Camera" parent="."]
transform = Transform( 1, 0, 0, 0, -4.37114e-08, 1, 0, -1, -4.37114e-08, 0, 10.074, 0 )
projection = 1
current = true
size = 35.69
far = 1859.1

[node name="WorldEnvironment" type="WorldEnvironment" parent="."]
environment = SubResource( 2 )

[node name="walls" parent="." instance=ExtResource( 4 )]
transform = Transform( 16.9, 0, 0, 0, 18.3415, 0, 0, 0, 16.9, 0, 0, 0 )

[node name="Boid" parent="." instance=ExtResource( 2 )]
transform = Transform( 0.711965, 0, -0.702215, 0, 1, 0, 0.702215, 0, 0.711965, -10.2967, 0, 1.45498 )
script = ExtResource( 3 )
